{
    "06ce73f4": {
        "contributors": [
            "199073761"
        ],
        "name": {
            "en": "Downtown for Shanghai and Xiahai",
            "zh-Hans": "上海下海城区"
        },
        "lastUpdateOn": 1739443695699
    },
    "18760b54": {
        "contributors": [
            "162022534"
        ],
        "name": {
            "en": "Kabars",
            "zh-Hant": "喀巴里斯"
        },
        "lastUpdateOn": 1711766856949
    },
    "19f63b93": {
        "contributors": [
            "34294007"
        ],
        "name": {
            "en": "Jingzhou",
            "zh-Hans": "京州",
            "zh-Hant": "京州"
        },
        "lastUpdateOn": 1730899621824
    },
    "1fb67fa9": {
        "contributors": [
            "37297958"
        ],
        "name": {
            "en": "Rio de Janeiro perfection ver."
        },
        "lastUpdateOn": 1741179159631
    },
    "24bb8c81": {
        "contributors": [
            "177911449"
        ],
        "name": {
            "zh-Hans": "陈江市",
            "en": "Chenjiang City"
        },
        "lastUpdateOn": 1733335445075
    },
    "25258fa0": {
        "contributors": [
            "122979224"
        ],
        "name": {
            "en": "Tancheng",
            "zh-Hans": "覃城（旧版）"
        },
        "lastUpdateOn": 1726327447906
    },
    "35197ad3": {
        "contributors": [
            "189455470"
        ],
        "name": {
            "en": "Long-term planning of Qingdao",
            "zh-Hans": "青岛地铁远期规划"
        },
        "lastUpdateOn": 1732883128174
    },
    "402e2736": {
        "contributors": [
            "183899241"
        ],
        "name": {
            "en": "Dalixinqu Metro x Binhai Metro 2.0",
            "zh-Hans": "大力新区地铁x滨海2.0"
        },
        "lastUpdateOn": 1739775068666
    },
    "4a79ce30": {
        "contributors": [
            "161139372"
        ],
        "name": {
            "zh-Hans": "末海市",
            "en": "Mohai City"
        },
        "lastUpdateOn": 1711256979455
    },
    "63c73f5d": {
        "contributors": [
            "192977205"
        ],
        "name": {
            "en": "Guangzhou Metro(only Guangzhou)",
            "zh-Hans": "广州地铁地图（广州属地版）"
        },
        "lastUpdateOn": 1737538729755
    },
    "6e0cabd9": {
        "contributors": [
            "84329088"
        ],
        "name": {
            "zh-Hans": "龙村",
            "en": "Longcun",
            "zh-Hant": "龍村"
        },
        "lastUpdateOn": 1736062357265
    },
    "6e70249d": {
        "contributors": [
            "56497271"
        ],
        "name": {
            "en": "Linyi",
            "zh-Hans": "临沂"
        },
        "lastUpdateOn": 1738341297606
    },
    "744f8537": {
        "contributors": [
            "177911449"
        ],
        "name": {
            "zh-Hans": "徐江市",
            "en": "Xujiang"
        },
        "lastUpdateOn": 1723184110018
    },
    "786e478a": {
        "contributors": [
            "177911449"
        ],
        "name": {
            "zh-Hans": "苏阳和紫山地铁线路图",
            "en": "Suyang-Zishan Transport System Map"
        },
        "lastUpdateOn": 1740735375318
    },
    "7b199c33": {
        "contributors": [
            "185932458"
        ],
        "name": {
            "en": "Changyuan",
            "zh-Hans": "长源"
        },
        "lastUpdateOn": 1729645880657
    },
    "81a9b319": {
        "contributors": [
            "62193142"
        ],
        "name": {
            "en": "Hohhot Urban Railway",
            "zh-Hans": "呼和浩特城市铁路"
        },
        "lastUpdateOn": 1713964164382
    },
    "88acf189": {
        "contributors": [
            "122979224"
        ],
        "name": {
            "en": "Tancheng",
            "zh-Hans": "覃城"
        },
        "lastUpdateOn": 1730560546001
    },
    "8a7aa3cd": {
        "contributors": [
            "189455470"
        ],
        "name": {
            "zh-Hans": "青岛地铁四期规划",
            "en": "Qingdao Metro Phase IV Planning"
        },
        "lastUpdateOn": 1735822971456
    },
    "9078dcc8": {
        "contributors": [
            "177911449"
        ],
        "name": {
            "zh-Hans": "新阳市",
            "en": "Xinyang City"
        },
        "lastUpdateOn": 1729646286837
    },
    "993b3c79": {
        "contributors": [
            "104010398"
        ],
        "name": {
            "en": "Klawhay",
            "zh-Hans": "昆仑威"
        },
        "lastUpdateOn": 1721374619931
    },
    "a770fe81": {
        "contributors": [
            "167577461"
        ],
        "name": {
            "zh-Hans": "南京三期",
            "en": "Nanjing-Third Planning"
        },
        "lastUpdateOn": 1713598042032
    },
    "a798ee37": {
        "contributors": [
            "197863007"
        ],
        "name": {
            "zh-Hans": "璃月",
            "en": "Liyue"
        },
        "lastUpdateOn": 1738745401895
    },
    "australia": {
        "contributors": [
            "134931870"
        ],
        "name": {
            "en": "Australia",
            "zh-Hans": "澳大利亚"
        },
        "lastUpdateOn": 1721227062000
    },
    "bcf2aeaa": {
        "contributors": [
            "195666055"
        ],
        "name": {
            "en": "Hami",
            "zh-Hans": "哈密市",
            "ru": "Хами"
        },
        "lastUpdateOn": 1740493920551
    },
    "c35b550a": {
        "contributors": [
            "110673506"
        ],
        "name": {
            "en": "Renqiu",
            "zh-Hans": "任丘市"
        },
        "lastUpdateOn": 1738284496526
    },
    "dd328f49": {
        "contributors": [
            "192348948"
        ],
        "name": {
            "en": "Miyahara",
            "zh-Hans": "宫原"
        },
        "lastUpdateOn": 1734708149711
    },
    "de541c69": {
        "contributors": [
            "199103833"
        ],
        "name": {
            "zh-Hans": "南京地铁三期规划",
            "en": "Nanjing Metro Planning"
        },
        "lastUpdateOn": 1739848241543
    },
    "wenxi": {
        "contributors": [
            "3353040"
        ],
        "name": {
            "en": "Wenxi"
        },
        "lastUpdateOn": 1693584714026
    }
}